<?xml version="1.0" encoding="UTF-8" standalone="no"?>
<!-- Generator: Adobe Illustrator 19.0.1, SVG Export Plug-In . SVG Version: 6.00 Build 0)  -->
<svg id="Layer_1" xmlns="http://www.w3.org/2000/svg" xml:space="preserve" viewBox="0 0 141.9 83.3" version="1.1" y="0px" x="0px" xmlns:xlink="http://www.w3.org/1999/xlink" enable-background="new 0 0 141.9 83.3">
	<path stroke="#FFDF9E" stroke-miterlimit="10" d="m35.4 12.7c10.1-4.4 22.7-6.8 35.3-6.8s24.1 2.4 34.2 6.8c-19 0.6-34.2 16.2-34.2 35.3 0-19.5-15.8-35.3-35.3-35.3z" fill="#FFDF9E"/>
	<path d="m34.3 42.2c-3.2 0-5.8 2.6-5.8 5.8s2.6 5.8 5.8 5.8 5.8-2.6 5.8-5.8c0-3.3-2.6-5.8-5.8-5.8z" fill="#EC2227"/>
	<path d="m105.4 42.1c-3.2 0-5.8 2.6-5.8 5.8s2.6 5.8 5.8 5.8c3.2 0 5.8-2.6 5.8-5.8s-2.6-5.8-5.8-5.8z" fill="#07A64F"/>
		<path d="m35.2 30.8c-9.5 0-17.1 7.7-17.1 17.2s7.7 17.1 17.1 17.1c9.5 0 17.2-7.7 17.2-17.1 0-9.6-7.7-17.2-17.2-17.2zm0 29c-6.6 0-11.9-5.3-11.9-11.9s5.3-11.9 11.9-11.9 11.9 5.3 11.9 11.9-5.3 11.9-11.9 11.9zm106.7-46.6h-23.6c-12-8.1-28.5-13.2-47.3-13.2-18.9 0-36.5 5.1-48.5 13.2h-22.5c3.7 4.3 6.4 10.1 7.1 14.1-4.2 5.8-6.8 13-6.8 20.7 0 19.5 15.8 35.3 35.3 35.3 11.1 0 21-5.1 27.4-13.1 2.6 3.1 7 9.3 7.9 11.1 0 0 5.1-7.6 7.9-11.1 6.5 8 16.3 13 27.4 13 19.5 0 35.3-15.8 35.3-35.3 0-7.8-2.5-14.9-6.8-20.7 0.9-3.9 3.6-9.7 7.2-14zm-106.3 63.2c-15.7 0-28.4-12.7-28.4-28.4s12.7-28.4 28.4-28.4 28.5 12.7 28.5 28.4c0 15.7-12.8 28.4-28.5 28.4zm0.1-63.7c10.1-4.4 22.7-6.8 35.3-6.8s24.1 2.4 34.2 6.8c-19 0.6-34.2 16.2-34.2 35.3 0-19.5-15.8-35.3-35.3-35.3zm70.6 63.7c-15.7 0-28.4-12.7-28.4-28.4s12.7-28.4 28.4-28.4 28.4 12.7 28.4 28.4-12.7 28.4-28.4 28.4zm0-45.7c-9.5 0-17.1 7.7-17.1 17.2s7.7 17.1 17.1 17.1c9.5 0 17.1-7.7 17.1-17.1 0-9.5-7.6-17.2-17.1-17.2zm0 29c-6.6 0-11.9-5.3-11.9-11.9s5.3-11.9 11.9-11.9 11.9 5.3 11.9 11.9c0 6.6-5.3 11.9-11.9 11.9z" fill="#010101"/>
			<path d="m179.2 116.7h-1.2v-4.7h1.7c0.8 0 1.9 0.1 1.9 1.4 0 0.6-0.3 1-1 1.2l1.1 2.1h-1.2l-1-1.9h-0.4v1.9zm0-2.7c0.6 0 0.7 0 0.9-0.1 0.4-0.1 0.4-0.4 0.4-0.6 0-0.3-0.1-0.5-0.3-0.6s-0.3-0.1-0.9-0.1v1.4z" fill="#07A64F"/>
		<path d="m179.9 110.2c-2.4 0-4.3 1.9-4.3 4.3s1.9 4.3 4.3 4.3 4.3-1.9 4.3-4.3-1.9-4.3-4.3-4.3zm0 7.8c-1.9 0-3.5-1.6-3.5-3.5s1.6-3.5 3.5-3.5 3.5 1.6 3.5 3.5-1.6 3.5-3.5 3.5z" fill="#07A64F"/>
		<path d="m-25.8 116v-3.9h-6.3v-5.8l-4.9 1.4v4.4h-3.7v3.9h3.7v12.4c0 5.5 2.3 8.3 6.7 8.3 1.6 0 3-0.2 4.1-0.6l0.1-0.1-0.2-3.8-0.2 0.1c-0.6 0.2-1.5 0.3-2.5 0.3-1.1 0-1.9-0.3-2.4-1s-0.8-1.9-0.8-3.4v-12.2h6.4z"/>
		<path d="m-9 111.7c-0.5-0.1-0.9-0.1-1.3-0.1-1.5 0-2.9 0.5-4.2 1.4-1.1 0.8-1.9 1.9-2.5 3.2l-0.3-4.1h-4.4v0.2c0.1 1.9 0.2 4.5 0.2 7.5v16.4h5v-12.7c0-2.3 0.6-4.1 1.7-5.4 1.1-1.2 2.5-1.9 4.1-1.9 0.6 0 1.1 0 1.5 0.1l0.2 0.1v-4.7z"/>
			<rect y="112.1" x="-4.6" height="24.1" width="5"/>
			<path d="m-2.1 108.2c0.9 0 1.7-0.3 2.3-0.9s0.9-1.3 0.9-2.2-0.3-1.6-0.9-2.2-1.3-0.9-2.2-0.9-1.7 0.3-2.3 0.9-0.9 1.3-0.9 2.2 0.3 1.6 0.9 2.2c0.5 0.6 1.3 0.9 2.2 0.9z"/>
		<path d="m24.5 114.9c-1.9-2.3-4.4-3.5-7.3-3.5-3.5 0-6.3 1.4-8.2 4.1l-0.2-3.5h-4.5v0.3c0.1 2 0.2 4.6 0.2 7.8v25.9h5v-12.3c0.7 0.9 1.6 1.6 2.6 2.2 1.3 0.7 2.8 1 4.4 1 3.1 0 5.7-1.2 7.8-3.6s3.1-5.6 3.1-9.5c0-3.6-1-6.6-2.9-8.9zm-12.2 2c1.1-0.8 2.2-1.1 3.5-1.1 2 0 3.5 0.8 4.7 2.3 1.2 1.6 1.8 3.6 1.8 5.9 0 2.7-0.6 4.8-1.8 6.4s-2.8 2.3-4.9 2.3c-1.7 0-3.1-0.6-4.3-1.9-1.2-1.2-1.8-2.8-1.8-4.6v-3.8c0-0.7 0.2-1.6 0.6-2.7s1.2-2.1 2.2-2.8z"/>
		<path d="m49.5 136c-0.3-1.4-0.4-3.3-0.4-5.6v-8.7c0-3.2-0.8-5.8-2.4-7.5s-4-2.6-7.1-2.6c-3.2 0-6 0.7-8.3 2.2l-0.1 0.1 1.2 3.4 0.2-0.1c1.9-1.2 4-1.8 6.4-1.8 1.7 0 3.1 0.5 4 1.4s1.3 2.2 1.3 3.8v0.2c-4.7 0-8.4 0.8-10.8 2.3-2.5 1.5-3.8 3.8-3.8 6.8 0 1.9 0.7 3.6 2.1 4.9 1.4 1.4 3.3 2.1 5.5 2.1 3.1 0 5.6-1.1 7.4-3.3l0.5 2.8h4.6l-0.3-0.4zm-6.9-4.6c-1.1 1-2.6 1.6-4.2 1.6-1.2 0-2.1-0.3-2.8-1s-1.1-1.6-1.1-2.8c0-1.5 0.7-2.7 2.1-3.6s4-1.3 7.6-1.3v3.7c0.1 1.2-0.5 2.4-1.6 3.4z" fill="#07A64F"/>
		<path d="m74.6 136.3v-0.3c-0.1-1.5-0.2-3.6-0.2-6.2v-29h-5v13.6c-0.7-0.8-1.5-1.4-2.4-1.9-1.3-0.7-2.8-1-4.4-1-3 0-5.6 1.2-7.7 3.7-2 2.4-3.1 5.6-3.1 9.4 0 3.5 1 6.5 2.9 8.8 2 2.3 4.4 3.5 7.4 3.5 1.8 0 3.5-0.4 4.9-1.3 1.1-0.7 2.1-1.6 2.8-2.7l0.3 3.5h4.5zm-5.2-14.2v3.8c0 2-0.6 3.7-1.8 4.9s-2.6 1.8-4.2 1.8c-2.1 0-3.7-0.8-4.8-2.3-1.2-1.6-1.8-3.6-1.8-6 0-2.6 0.6-4.7 1.9-6.2 1.2-1.6 2.8-2.3 4.8-2.3 1.6 0 3 0.6 4.2 1.8 1.1 1 1.7 2.6 1.7 4.5z" fill="#07A64F"/>
		<path d="m94.9 112.1s-6.2 12.6-6.6 14c-0.6-1.7-6.7-14-6.7-14h-5.4l12.1 24.1 11.9-24.1h-5.3z" fill="#07A64F"/>
		<g fill="#07A64F">
			<rect y="112.1" x="102.6" height="24.1" width="5"/>
			<path d="m105.1 108.2c0.9 0 1.7-0.3 2.3-0.9s0.9-1.3 0.9-2.2-0.3-1.6-0.9-2.2-1.3-0.9-2.2-0.9-1.7 0.3-2.3 0.9-0.9 1.3-0.9 2.2 0.3 1.6 0.9 2.2c0.5 0.6 1.3 0.9 2.2 0.9z"/>
		</g>
		<path d="m127.1 125c-1-1.1-2.7-2.1-5-3-1.8-0.7-3.1-1.3-3.6-1.8-0.6-0.5-0.8-1.2-0.8-2 0-0.9 0.3-1.6 1-2.1 0.7-0.6 1.6-0.8 2.7-0.8 1.7 0 3.4 0.5 5 1.4l0.2 0.1 1.3-3.7-0.1-0.1c-1.7-1-3.8-1.5-6.2-1.5-2.6 0-4.7 0.7-6.3 2.1s-2.4 3.1-2.4 5.2c0 3.1 2.2 5.4 6.6 6.9 1.6 0.5 2.8 1.1 3.4 1.7s0.9 1.3 0.9 2.3-0.4 1.8-1.1 2.3c-0.8 0.6-1.9 0.9-3.3 0.9-2 0-4-0.6-5.9-1.7l-0.2-0.1-1.2 3.9 0.1 0.1c2.1 1.1 4.4 1.7 7 1.7 2.9 0 5.1-0.7 6.8-2 1.7-1.4 2.5-3.2 2.5-5.4 0.1-1.8-0.4-3.2-1.4-4.4z" fill="#07A64F"/>
		<path d="m151.4 115c-2.1-2.3-4.9-3.5-8.3-3.5s-6.3 1.2-8.5 3.5-3.4 5.4-3.4 9.3c0 3.6 1.1 6.6 3.3 8.9s5 3.5 8.3 3.5c2.1 0 4.1-0.5 6-1.6 1.8-1 3.3-2.5 4.3-4.5 1-1.9 1.5-4.2 1.5-6.8-0.1-3.5-1.1-6.5-3.2-8.8zm-8.7 18c-1.9 0-3.5-0.8-4.8-2.5-1.3-1.6-1.9-3.8-1.9-6.3s0.6-4.7 1.9-6.4c1.2-1.7 2.9-2.5 5-2.5s3.7 0.9 4.9 2.5c1.2 1.7 1.8 3.8 1.8 6.2 0 2.6-0.7 4.8-2 6.4-1.3 1.7-2.9 2.6-4.9 2.6z" fill="#07A64F"/>
		<path d="m171.2 111.7c-0.5-0.1-0.9-0.1-1.3-0.1-1.5 0-2.9 0.5-4.2 1.4-1.1 0.8-1.9 1.9-2.5 3.2l-0.3-4.1h-4.4v0.2c0.1 1.9 0.2 4.5 0.2 7.5v16.4h5v-12.7c0-2.3 0.6-4.1 1.7-5.4 1.1-1.2 2.5-1.9 4.1-1.9 0.6 0 1.1 0 1.5 0.1l0.2 0.1v-4.7z" fill="#07A64F"/>
</svg>
